8 iwc-joey – The Truth Behind Groundhog Accuracy: A Data-Driven Study
…
Rows: 130 Columns: 2
── Column specification ────────────────────────────────────────────────────────
Delimiter: ","
dbl (2): Date, Value

ℹ Use `spec()` to retrieve the full column specification for this data.
ℹ Specify the column types or set `show_col_types = FALSE` to quiet this message.

Code
#61 data point > 37 F (Early Spring) --- 69 data points < 37 F (Late Winter)
Actual_weather|>
  arrange(desc(Value))

# A tibble: 130 × 2
     Date Value
    <dbl> <dbl>
 1 201204  43.2
 2 192104  42.9
 3 202404  42.7
 4 201704  41.9
 5 202304  41.8
 6 199804  41.6
 7 194504  41.4
 8 197604  41.2
 9 199004  41  
10 200204  40.7
# ℹ 120 more rows
…
